-- In this level you could trap the cat inside the box
   A   >              A
                    ,
        ##########
        #        #
    &   0   &    0   &
        #        #
     .  ##########
                      @
