-- In this level the cat is trapped and triggers should be avoided
          AAAAA
          AAAAA     ,
        ##########
    >   #        #
        0   @    0
        #        #
        ####0#####  .
      AAAAAAAAAAAA
      AAAAAAAAAAAA
            A